module "Bahn payed"

go 1.14

require (
	github.com/PuerkitoBio/goquery v1.5.1 // indirect
	github.com/fatih/color v1.9.0 // indirect
	github.com/gosuri/uitable v0.0.4 // indirect
	github.com/mattn/go-runewidth v0.0.9 // indirect
	github.com/teris-io/cli v1.0.1 // indirect
)
